Mini- Project 1 – STA 9750 Submission Material
…
Number_1<-COUNTRY_TOP_10|>
  group_by(week,show_title,season_title)|>
  filter(country_name=='United States',(weekly_rank!=1)==(cumulative_weeks_in_top_10==1),year(week)==2025)|>
  summarize(weeks_to_1=cumulative_weeks_in_top_10,is_number_1=sum(weekly_rank==1)) |>
  filter(is_number_1==1)|>
  ungroup()

`summarise()` has grouped output by 'week', 'show_title'. You can override
using the `.groups` argument.

Show the code

Number_1

# A tibble: 38 × 5
   week       show_title                     season_title weeks_to_1 is_number_1
   <date>     <chr>                          <chr>             <dbl>       <int>
 1 2025-01-05 Carry-On                       N/A                   4           1
 2 2025-01-05 Squid Game                     Squid Game:…          2           1
 3 2025-01-12 Despicable Me 2                N/A                  19           1
 4 2025-01-12 Squid Game                     Squid Game:…          3           1
 5 2025-01-19 American Primeval              American Pr…          2           1
 6 2025-01-26 Back in Action                 N/A                   2           1
 7 2025-02-02 Back in Action                 N/A                   3           1
 8 2025-02-02 The Night Agent                The Night A…          2           1
 9 2025-02-09 American Manhunt: O.J. Simpson American Ma…          2           1
10 2025-03-02 American Murder: Gabby Petito  American Mu…          2           1
# ℹ 28 more rows
…
Show the code

COUNTRY_TOP_10|>
  group_by(show_title,season_title)|>
  filter(cumulative_weeks_in_top_10==1)|>
  summarize(total_countries=sum(n_distinct(country_name)))|>
  ungroup()|>
 slice_max(total_countries, n=1) |>
 format_titles()

`summarise()` has grouped output by 'show_title'. You can override using the
`.groups` argument.

# A tibble: 25 × 3
   `Show Title`       `Season Title`                 `Total Countries`
   <chr>              <chr>                                      <int>
 1 All of Us Are Dead All of Us Are Dead: Season 1                  94
 2 Army of Thieves    N/A                                           94
 3 Beckett            N/A                                           94
 4 Blood Red Sky      N/A                                           94
 5 Don't Look Up      N/A                                           94
 6 Emily in Paris     Emily in Paris: Season 2                      94
 7 Hypnotic           N/A                                           94
 8 Intrusion          N/A                                           94
 9 Inventing Anna     Inventing Anna: Limited Series                94
10 Kate               N/A                                           94
# ℹ 15 more rows
…
