Mini Project 2 – STA 9750 Submission Material
…
Show the code

rent_income1<-inner_join(PERMITS,rent_income, join_by(CBSA==GEOID,
                                                    year==year))

Show the code

rent_2009 <-rent_income1|>
  group_by(CBSA)|>
  filter(year==2009)|>
  summarize(household_income,monthly_rent,year)

rent_2009

# A tibble: 366 × 4
    CBSA household_income monthly_rent  year
   <dbl>            <dbl>        <dbl> <dbl>
 1 10180            42931          712  2009
 2 10420            47482          723  2009
 3 10500            36218          624  2009
 4 10580            57677          833  2009
 5 10740            46824          726  2009
 6 10780            39530          668  2009
 7 10900            56802          860  2009
 8 11020            38455          533  2009
 9 11100            43373          657  2009
10 11180            45516          682  2009
# ℹ 356 more rows
…
health_and_social_employment_top_100<-population_industry_wages|>
  group_by(YEAR, NAME,CBSA)|>
  filter(level1_code=='62')|>
  summarize(total_employment=sum(EMPLOYMENT))|>
  ungroup()|>
  slice_max(total_employment,n=100)

`summarise()` has grouped output by 'YEAR', 'NAME'. You can override using the
`.groups` argument.

Show the code

health_and_social_employment_top_100

# A tibble: 100 × 4
    YEAR NAME                                              CBSA total_employment
   <dbl> <chr>                                            <dbl>            <dbl>
 1  2023 New York-Newark-Jersey City, NY-NJ Metro Area    35620         52707930
 2  2022 New York-Newark-Jersey City, NY-NJ-PA Metro Area 35620         49474560
 3  2019 New York-Newark-Jersey City, NY-NJ-PA Metro Area 35620         48320790
 4  2021 New York-Newark-Jersey City, NY-NJ-PA Metro Area 35620         47181840
 5  2018 New York-Newark-Jersey City, NY-NJ-PA Metro Area 35620         46190670
 6  2017 New York-Newark-Jersey City, NY-NJ-PA Metro Area 35620         44373870
 7  2016 New York-Newark-Jersey City, NY-NJ-PA Metro Area 35620         42772590
 8  2015 New York-Newark-Jersey City, NY-NJ-PA Metro Area 35620         41512080
 9  2014 New York-Newark-Jersey City, NY-NJ-PA Metro Area 35620         40412190
10  2013 New York-Newark-Jersey City, NY-NJ-PA Metro Area 35620         39423930
# ℹ 90 more rows
…
`summarise()` has grouped output by 'CBSA', 'year'. You can override using the
`.groups` argument.

Show the code

household_evolution<-bind_rows(household_evolution_top_50,household_evolution_bottom_50)

household_evolution

# A tibble: 100 × 4
    CBSA  year NAME                                           average_households
   <dbl> <dbl> <chr>                                                       <dbl>
 1 35620  2023 New York-Newark-Jersey City, NY-NJ Metro Area             7490498
 2 35620  2022 New York-Newark-Jersey City, NY-NJ-PA Metro A…            7478571
 3 35620  2021 New York-Newark-Jersey City, NY-NJ-PA Metro A…            7347700
 4 35620  2018 New York-Newark-Jersey City, NY-NJ-PA Metro A…            7282923
 5 35620  2017 New York-Newark-Jersey City, NY-NJ-PA Metro A…            7204800
 6 35620  2014 New York-Newark-Jersey City, NY-NJ-PA Metro A…            7152760
 7 35620  2015 New York-Newark-Jersey City, NY-NJ-PA Metro A…            7125065
 8 35620  2016 New York-Newark-Jersey City, NY-NJ-PA Metro A…            7118024
 9 35620  2019 New York-Newark-Jersey City, NY-NJ-PA Metro A…            7102817
10 35620  2013 New York-Newark-Jersey City, NY-NJ-PA Metro A…            7080691
# ℹ 90 more rows
…
`summarise()` has grouped output by 'year'. You can override using the
`.groups` argument.

Show the code

rent_to_income_ratio

# A tibble: 100 × 4
   Ranking `Percent Rent Burden`  Year Name                               
     <int>                 <dbl> <dbl> <chr>                              
 1     100                  38.2  2018 Mayagüez, PR Metro Area            
 2      99                  37.2  2014 San Germán, PR Metro Area          
 3      98                  36.9  2012 Guayama, PR Metro Area             
 4      97                  34.7  2010 San Germ?n-Cabo Rojo, PR Metro Area
 5      96                  34.4  2013 Guayama, PR Metro Area             
 6      95                  34.3  2009 Coamo, PR Micro Area               
 7      94                  33.8  2017 San Germán, PR Metro Area          
 8      93                  33.5  2014 Guayama, PR Metro Area             
 9      92                  33.3  2017 Mayagüez, PR Metro Area            
10      91                  33.2  2022 Ponce, PR Metro Area               
# ℹ 90 more rows
…
`summarise()` has grouped output by 'year'. You can override using the
`.groups` argument.

Show the code

rent_to_income_ratio_difference

# A tibble: 100 × 7
    year NAME            rent_burden rent_burden_number n_total Rent_Burden_Rank
   <dbl> <chr>                 <dbl>              <dbl>   <int>            <int>
 1  2018 Mayagüez, PR M…        38.2              0.382       1              100
 2  2014 San Germán, PR…        37.2              0.372       1               99
 3  2012 Guayama, PR Me…        36.9              0.369       1               98
 4  2010 San Germ?n-Cab…        34.7              0.347       1               97
 5  2013 Guayama, PR Me…        34.5              0.345       1               96
 6  2009 Coamo, PR Micr…        34.3              0.343       1               95
 7  2017 San Germán, PR…        33.8              0.338       1               94
 8  2014 Guayama, PR Me…        33.5              0.335       1               93
 9  2017 Mayagüez, PR M…        33.3              0.333       1               92
10  2022 Ponce, PR Metr…        33.2              0.332       1               91
# ℹ 90 more rows
# ℹ 1 more variable: Difference <dbl>
…
`summarise()` has grouped output by 'year'. You can override using the
`.groups` argument.

Show the code

rent_to_income_ratio_difference

# A tibble: 100 × 4
   Ranking `Percent Rent Burden`  Year Name                               
     <int>                 <dbl> <dbl> <chr>                              
 1     100                  38.2  2018 Mayagüez, PR Metro Area            
 2      99                  37.2  2014 San Germán, PR Metro Area          
 3      98                  36.9  2012 Guayama, PR Metro Area             
 4      97                  34.7  2010 San Germ?n-Cabo Rojo, PR Metro Area
 5      96                  34.4  2013 Guayama, PR Metro Area             
 6      95                  34.3  2009 Coamo, PR Micro Area               
 7      94                  33.8  2017 San Germán, PR Metro Area          
 8      93                  33.5  2014 Guayama, PR Metro Area             
 9      92                  33.3  2017 Mayagüez, PR Metro Area            
10      91                  33.2  2022 Ponce, PR Metro Area               
# ℹ 90 more rows
…
